…
    ## Rows: 822 Columns: 9
    ## ── Column specification ────────────────────────────────────────────────────────
    ## Delimiter: ","
    ## dbl  (8): prez_gop, gov_gop, sen_gop, rep_gop, prez_dem, gov_dem, sen_dem, r...
    ## date (1): mon
    ## 
    ## ℹ Use `spec()` to retrieve the full column specification for this data.
    ## ℹ Specify the column types or set `show_col_types = FALSE` to quiet this message.

``` r
pols_month_df
```

    ## # A tibble: 822 × 9
    ##     year month     gov_gop sen_gop rep_gop gov_dem sen_dem rep_dem president
    ##    <int> <chr>       <dbl>   <dbl>   <dbl>   <dbl>   <dbl>   <dbl> <chr>    
    ##  1  1947 January        23      51     253      23      45     198 dem      
    ##  2  1947 February       23      51     253      23      45     198 dem      
    ##  3  1947 March          23      51     253      23      45     198 dem      
    ##  4  1947 April          23      51     253      23      45     198 dem      
    ##  5  1947 May            23      51     253      23      45     198 dem      
    ##  6  1947 June           23      51     253      23      45     198 dem      
    ##  7  1947 July           23      51     253      23      45     198 dem      
    ##  8  1947 August         23      51     253      23      45     198 dem      
    ##  9  1947 September      23      51     253      23      45     198 dem      
    ## 10  1947 October        23      51     253      23      45     198 dem      
    ## # ℹ 812 more rows
…
    ## Rows: 787 Columns: 2
    ## ── Column specification ────────────────────────────────────────────────────────
    ## Delimiter: ","
    ## chr (1): date
    ## dbl (1): close
    ## 
    ## ℹ Use `spec()` to retrieve the full column specification for this data.
    ## ℹ Specify the column types or set `show_col_types = FALSE` to quiet this message.

``` r
snp_df
```

    ## # A tibble: 787 × 3
    ##     year month    close
    ##    <dbl> <chr>    <dbl>
    ##  1  2015 July     2080.
    ##  2  2015 June     2063.
    ##  3  2015 May      2107.
    ##  4  2015 April    2086.
    ##  5  2015 March    2068.
    ##  6  2015 February 2104.
    ##  7  2015 January  1995.
    ##  8  2014 December 2059.
    ##  9  2014 November 2068.
    ## 10  2014 October  2018.
    ## # ℹ 777 more rows
…
    ## Rows: 68 Columns: 13
    ## ── Column specification ────────────────────────────────────────────────────────
    ## Delimiter: ","
    ## dbl (13): Year, Jan, Feb, Mar, Apr, May, Jun, Jul, Aug, Sep, Oct, Nov, Dec
    ## 
    ## ℹ Use `spec()` to retrieve the full column specification for this data.
    ## ℹ Specify the column types or set `show_col_types = FALSE` to quiet this message.

``` r
unemp_df
```

    ## # A tibble: 816 × 3
    ##     year month     unemp_pct
    ##    <dbl> <chr>         <dbl>
    ##  1  1948 January         3.4
    ##  2  1948 February        3.8
    ##  3  1948 March           4  
    ##  4  1948 April           3.9
    ##  5  1948 May             3.5
    ##  6  1948 June            3.6
    ##  7  1948 July            3.6
    ##  8  1948 August          3.9
    ##  9  1948 September       3.8
    ## 10  1948 October         3.7
    ## # ℹ 806 more rows
…
``` r
fivethreeeight_df = left_join(
  pols_month_df, snp_df
) |> 
  left_join(unemp_df)
```

    ## Joining with `by = join_by(year, month)`
    ## Joining with `by = join_by(year, month)`

``` r
fivethreeeight_df
```

    ## # A tibble: 822 × 11
    ##     year month   gov_gop sen_gop rep_gop gov_dem sen_dem rep_dem president close
    ##    <dbl> <chr>     <dbl>   <dbl>   <dbl>   <dbl>   <dbl>   <dbl> <chr>     <dbl>
    ##  1  1947 January      23      51     253      23      45     198 dem          NA
    ##  2  1947 Februa…      23      51     253      23      45     198 dem          NA
    ##  3  1947 March        23      51     253      23      45     198 dem          NA
    ##  4  1947 April        23      51     253      23      45     198 dem          NA
    ##  5  1947 May          23      51     253      23      45     198 dem          NA
    ##  6  1947 June         23      51     253      23      45     198 dem          NA
    ##  7  1947 July         23      51     253      23      45     198 dem          NA
    ##  8  1947 August       23      51     253      23      45     198 dem          NA
    ##  9  1947 Septem…      23      51     253      23      45     198 dem          NA
    ## 10  1947 October      23      51     253      23      45     198 dem          NA
    ## # ℹ 812 more rows
    ## # ℹ 1 more variable: unemp_pct <dbl>
…
trash_wheel_data_df = bind_rows(
  mr_trash_wheel_df,
  prof_trash_wheel_df,
  gwynnda_trash_wheel_df
) |> 
  relocate(plastic_bags, .after = sports_balls)

trash_wheel_data_df
```

    ## # A tibble: 747 × 16
    ##    trash_wheel     dumpster month  year date                weight_tons
    ##    <chr>              <dbl> <chr> <dbl> <dttm>                    <dbl>
    ##  1 Mr. Trash Wheel        1 May    2014 2014-05-16 00:00:00        4.31
    ##  2 Mr. Trash Wheel        2 May    2014 2014-05-16 00:00:00        2.74
    ##  3 Mr. Trash Wheel        3 May    2014 2014-05-16 00:00:00        3.45
    ##  4 Mr. Trash Wheel        4 May    2014 2014-05-17 00:00:00        3.1 
    ##  5 Mr. Trash Wheel        5 May    2014 2014-05-17 00:00:00        4.06
    ##  6 Mr. Trash Wheel        6 May    2014 2014-05-20 00:00:00        2.71
    ##  7 Mr. Trash Wheel        7 May    2014 2014-05-21 00:00:00        1.91
    ##  8 Mr. Trash Wheel        8 May    2014 2014-05-28 00:00:00        3.7 
    ##  9 Mr. Trash Wheel        9 June   2014 2014-06-05 00:00:00        2.52
    ## 10 Mr. Trash Wheel       10 June   2014 2014-06-11 00:00:00        3.76
    ## # ℹ 737 more rows
    ## # ℹ 10 more variables: volume_cubic_yards <dbl>, plastic_bottles <dbl>,
    ## #   polystyrene <dbl>, cigarette_butts <dbl>, glass_bottles <dbl>,
    ## #   grocery_bags <dbl>, chip_bags <dbl>, sports_balls <dbl>,
    ## #   plastic_bags <dbl>, houses_powered <dbl>
…
